#tidytuesday: Fitting multiple time-series models using purrr · Sean Meling Murray
…
The newly created models column contains a separate simple linear regression model fitted to the corresponding data set in the data column. We can extract meaningful information from each model and output the information in a tidy way using broom.

Tidying up with broom

The broom package transforms the output of lm into tidy data frames. For example, we can extract the estimated model parameters and their associated statistics for each department using the tidy function. Setting conf.int = TRUE returns 95 % confidence intervals for the parameter estimates. Alternatively, one could set quick = TRUE to return only the estimated regression coefficients. The aptly named unnest function lets us unpack the contents of a list column and display it as a tidy dataframe:

# Display estimated parameters, associated statistics, confidence intervals
nested_models %>% 
  mutate(coefs = map(model, tidy, conf.int = TRUE)) %>% 
  unnest(coefs)

## # A tibble: 28 x 8
##    department term  estimate std.error statistic  p.value conf.low
##    <chr>      <chr>    <dbl>     <dbl>     <dbl>    <dbl>    <dbl>
##  1 DOD        (Int~ -1.93e12   3.13e11    -6.17  2.75e- 7 -2.57e12
##  2 DOD        year   1.00e 9   1.57e 8     6.37  1.41e- 7  6.83e 8
##  3 NASA       (Int~ -9.01e10   5.86e10    -1.54  1.32e- 1 -2.09e11
##  4 NASA       year   5.12e 7   2.94e 7     1.74  8.88e- 2 -8.13e 6
##  5 DOE        (Int~  3.81e10   4.67e10     0.816 4.19e- 1 -5.62e10
##  6 DOE        year  -1.31e 7   2.34e 7    -0.562 5.78e- 1 -6.04e 7
##  7 HHS        (Int~ -1.59e12   9.71e10   -16.4   2.21e-19 -1.79e12
##  8 HHS        year   8.10e 8   4.86e 7    16.7   1.36e-19  7.12e 8
##  9 NIH        (Int~ -1.55e12   9.23e10   -16.8   9.63e-20 -1.74e12
## 10 NIH        year   7.88e 8   4.62e 7    17.1   5.98e-20  6.95e 8
## # ... with 18 more rows, and 1 more variable: conf.high <dbl>
…
